<?xml version="1.0" encoding="UTF-8" standalone="no"?>
<!-- Created with Inkscape (http://www.inkscape.org/) -->

<svg
   width="216mm"
   height="216mm"
   viewBox="0 0 216.00001 216.00001"
   version="1.1"
   id="svg5"
   inkscape:version="1.2.2 (b0a8486541, 2022-12-01)"
   sodipodi:docname="nuf-icona-scaled-rework-backgroundless.svg"
   xmlns:inkscape="http://www.inkscape.org/namespaces/inkscape"
   xmlns:sodipodi="http://sodipodi.sourceforge.net/DTD/sodipodi-0.dtd"
   xmlns="http://www.w3.org/2000/svg"
   xmlns:svg="http://www.w3.org/2000/svg">
  <sodipodi:namedview
     id="namedview7"
     pagecolor="#ffffff"
     bordercolor="#000000"
     borderopacity="0.25"
     inkscape:showpageshadow="2"
     inkscape:pageopacity="0.0"
     inkscape:pagecheckerboard="0"
     inkscape:deskcolor="#d1d1d1"
     inkscape:document-units="mm"
     showgrid="false"
     inkscape:zoom="1.2606213"
     inkscape:cx="479.52545"
     inkscape:cy="431.53324"
     inkscape:window-width="2560"
     inkscape:window-height="1403"
     inkscape:window-x="0"
     inkscape:window-y="0"
     inkscape:window-maximized="1"
     inkscape:current-layer="layer1" />
  <defs
     id="defs2">
    <inkscape:path-effect
       effect="fillet_chamfer"
       id="path-effect855"
       is_visible="true"
       lpeversion="1"
       nodesatellites_param="F,0,0,1,0,0,0,1 @ F,0,0,1,0,1.6887084,0,1 @ F,0,0,1,0,1.7978657,0,1"
       unit="px"
       method="auto"
       mode="F"
       radius="0"
       chamfer_steps="1"
       flexible="false"
       use_knot_distance="true"
       apply_no_radius="true"
       apply_with_radius="true"
       only_selected="false"
       hide_knots="false" />
    <inkscape:path-effect
       effect="fillet_chamfer"
       id="path-effect795"
       is_visible="true"
       lpeversion="1"
       nodesatellites_param="F,0,0,1,0,0,0,1 @ F,0,0,1,0,0,0,1 @ F,0,0,1,0,2.5725806,0,1 @ F,0,0,1,0,3.4030557,0,1 @ F,0,0,1,0,2.6612903,0,1"
       unit="px"
       method="auto"
       mode="F"
       radius="0"
       chamfer_steps="1"
       flexible="false"
       use_knot_distance="true"
       apply_no_radius="true"
       apply_with_radius="true"
       only_selected="false"
       hide_knots="false" />
    <rect
       x="195.13335"
       y="467.38126"
       width="192.11581"
       height="236.03758"
       id="rect647" />
  </defs>
  <g
     inkscape:label="Vrstva 1"
     inkscape:groupmode="layer"
     id="layer1">
    <path
       id="path3081"
       style="fill:#000000;fill-opacity:0.90430623;stroke-width:0.126915"
       d="m 66.940617,127.15706 -3.172933,2.07326 c -2.474457,1.61714 -1.99795,3.96953 1.068152,5.27461 L 110.2186,153.8221 c 3.06611,1.30509 7.52648,1.05386 10.00094,-0.56327 l 23.22648,-15.17892 c 2.47445,-1.61713 1.99797,-3.96952 -1.06815,-5.27461 l -1.19527,-0.50901 c -5.89783,3.88308 -12.21743,8.0054 -17.88995,11.68659 -4.51793,3.01853 -10.0737,2.94334 -14.70195,1.10122 -7.73339,-3.24414 -15.794088,-6.75439 -23.788209,-10.22987 l -1.372523,0.89711 c -0.866061,0.56599 -2.426906,0.65418 -3.500044,0.1974 -1.073127,-0.45678 -1.240198,-1.2804 -0.374138,-1.8464 l 1.403532,-0.91726 c -0.809273,-0.35124 -1.628123,-0.70828 -2.433964,-1.0573 l -1.423168,0.93018 c -0.866061,0.566 -2.426909,0.65419 -3.500045,0.1974 -1.073134,-0.45678 -1.239681,-1.2804 -0.373621,-1.84639 l 1.444873,-0.94413 c -2.040113,-0.87907 -4.068412,-1.75039 -6.066813,-2.60036 -0.553358,-0.23717 -1.111332,-0.47118 -1.666063,-0.70744 z" />
    <g
       aria-label="$"
       transform="matrix(0.26458333,0,0,0.26458333,8.5144661,-4.7903226)"
       id="text645"
       style="font-size:192px;white-space:pre;shape-inside:url(#rect647);fill:#0000ff" />
    <path
       id="path3073"
       style="fill:#000000;fill-opacity:0.90430623;stroke-width:0.126915"
       d="m 66.940616,114.78314 -3.172932,2.07326 c -2.474457,1.61713 -1.99795,3.96953 1.068152,5.27461 l 45.382764,19.31717 c 3.06611,1.30509 7.52648,1.05438 10.00094,-0.56276 l 23.22648,-15.17943 c 2.47445,-1.61713 1.99797,-3.96952 -1.06815,-5.27461 l -1.19527,-0.50902 c -5.89784,3.88309 -12.21743,8.0054 -17.88995,11.68659 -4.51793,3.01854 -10.0737,2.94334 -14.70194,1.10123 -7.7332,-3.24405 -15.793781,-6.75396 -23.787702,-10.22935 l -1.373044,0.8971 c -0.866061,0.566 -2.4269,0.65367 -3.500043,0.19689 -1.073127,-0.45678 -1.240199,-1.27989 -0.374138,-1.84589 l 1.404052,-0.91725 c -0.809274,-0.35124 -1.628122,-0.70828 -2.433964,-1.0573 l -1.423686,0.93018 c -0.86606,0.56599 -2.426908,0.65366 -3.500044,0.19688 -1.073134,-0.45678 -1.239681,-1.27988 -0.373621,-1.84588 l 1.44539,-0.94464 c -2.040261,-0.87913 -4.068785,-1.75033 -6.067331,-2.60036 -0.553358,-0.23717 -1.111332,-0.47118 -1.666064,-0.70744 z" />
    <g
       id="g143"
       transform="matrix(0.41958515,-0.274212,0.51990832,0.22129917,6.9333889,100.21449)">
      <path
         id="path141"
         style="fill:#000000;fill-opacity:0.43062201;stroke-width:0.264583"
         d="M 110,106.45161 H 85.338705 c -3.145291,0 -5.677421,-2.53213 -5.67742,-5.67742 l 5e-6,-26.96774 z"
         sodipodi:nodetypes="csscc" />
      <path
         id="path139"
         style="fill:#000000;fill-opacity:0.90430623;stroke-width:0.261573"
         d="m 110.00006,106.45123 -24.661365,-2.9e-4 c -3.145285,0 -5.677839,-2.53107 -5.677838,-5.67636 l 2.9e-4,-26.968161 -35.661206,3e-6 c -5.89739,0 -10.644573,4.747673 -10.644573,10.645063 l 4.7e-5,87.289885 c 0,5.89742 4.746534,10.64593 10.643924,10.64593 l 55.355141,5.7e-4 c 5.89737,0 10.64571,-4.74857 10.64571,-10.64598 l -5.3e-4,-28.95639 c -6.74841,1.11925 -11.547139,-0.90513 -16.489509,-2.29047 -3.642461,-0.3446 -6.441342,-2.17748 -6.076107,-5.89665 0.11432,-4.13702 4.794615,-9.87784 10.105806,-13.63144 4.13325,-2.81474 8.27613,-5.90589 12.46038,-8.78273 z M 67.635262,90.062894 c 0.530571,0.643562 0.848286,1.469764 0.848286,2.372801 0,2.064087 -1.661218,3.725086 -3.725305,3.725086 l -16.67781,4.92e-4 c -2.064087,0 -3.724935,-1.661796 -3.724935,-3.725883 0,-2.064082 1.661219,-3.725086 3.725306,-3.725086 l 16.677809,-4.92e-4 c 1.161049,0 2.194488,0.525646 2.876649,1.353082 z m 1.02e-4,12.170866 c 0.53057,0.64357 0.848286,1.46978 0.848286,2.3728 0,2.0641 -1.661217,3.72509 -3.725306,3.72509 l -16.67781,4.9e-4 c -2.064088,0 -3.724935,-1.66178 -3.724935,-3.72588 0,-2.06407 1.660731,-3.72569 3.72482,-3.72569 l 16.678296,1.1e-4 c 1.16105,0 2.194487,0.52565 2.876649,1.35308 z m 12.604205,26.67477 c 0.492993,0.56741 0.739675,1.39041 0.739675,2.4694 l -7.29e-4,8.38458 -5.803976,5.2e-4 7.6e-5,-7.11975 -6.994981,5.5e-4 2.72e-4,6.82128 11.460074,10.81423 c 0.892966,0.82682 1.33867,1.87761 1.33867,3.15091 l 3.71e-4,8.97907 c 0,1.4552 -0.446445,2.45556 -1.339411,3.00127 -0.64492,0.39686 -1.669921,0.59553 -3.075516,0.59553 -0.23151,0 -0.596298,-0.008 -1.09239,-0.0249 l -1.115723,-9e-5 6.63e-4,3.44749 -5.432934,2.5e-4 4.78e-4,-3.44841 -1.116865,8.3e-4 c -0.479554,0.0165 -0.842393,0.0242 -1.090439,0.0242 -1.389058,0 -2.405965,-0.19836 -3.050884,-0.59522 -0.859894,-0.52917 -1.290882,-1.52888 -1.290882,-3.00062 l 2.73e-4,-8.88019 5.804462,8e-5 -2.8e-4,7.76399 6.994981,-5.4e-4 4.28e-4,-7.56532 -11.534859,-10.91391 c -0.843357,-0.81029 -1.26453,-1.86027 -1.26453,-3.15011 l 7e-5,-8.23594 c 0,-1.4552 0.429273,-2.45479 1.289167,-3.00049 0.64492,-0.39687 1.661907,-0.59559 3.050965,-0.59559 0.248047,0 0.612349,0.007 1.091904,0.0243 0.496093,0.0165 0.868896,0.0249 1.11694,0.0249 l -2.53e-4,-3.47266 5.431793,6.7e-4 -2.32e-4,3.47206 c 0.248046,0 0.620526,-0.008 1.116618,-0.0245 0.512629,-0.0165 0.89264,-0.025 1.140684,-0.025 1.38906,0 2.405965,0.19835 3.050884,0.59523 0.219107,0.13228 0.411106,0.2927 0.575436,0.48184 z" />
    </g>
    <g
       id="g861"
       transform="matrix(0.742447,0.62309343,-0.59554258,0.77679391,83.510423,-83.457168)">
      <path
         id="rect786"
         style="fill:#000000;fill-opacity:0.43062201;stroke-width:0.264583"
         d="m 139.12786,73.629028 h 6.80716 c 1.72008,0 3.10483,1.384758 3.10483,3.104839 l 1e-5,6.90749 h -13.01683 v -6.90749 c 0,-1.720081 1.38475,-3.104839 3.10483,-3.104839 z"
         sodipodi:nodetypes="sssccss" />
      <path
         id="path793"
         style="fill:#000000;fill-opacity:0.90430623;stroke-width:0.221516"
         d="m 136.02335,83.641596 6e-5,30.369414 a 9.4703981,9.4703981 0 0 0 1.38574,4.93293 l 3.3497,5.48971 a 2.0765772,2.0765772 45 0 0 3.54512,3e-4 l 3.39605,-5.56539 a 9.1547181,9.1547181 45 0 0 1.34023,-4.76853 l 6e-5,-30.458646 z m 2.85652,2.094698 c 0.27364,-0.225647 0.62516,-0.36109 1.00915,-0.36109 0.87768,0 1.5842,0.706832 1.5842,1.584516 l -1.8e-4,19.85928 c 0,0.87768 -0.70668,1.5842 -1.58437,1.5842 -0.87768,0 -1.58388,-0.70642 -1.58388,-1.58411 l -1.4e-4,-19.85968 c 0,-0.493697 0.22339,-0.932998 0.57522,-1.223116 z m 1.22225,28.531536 a 1.015743,1.015743 0 0 1 0.58875,-0.18753 l 3.78699,-1.3e-4 a 1.0511932,1.0511932 0 0 1 0.91637,1.56672 l -2.86253,5.08687 -2.73856,-5.16167 a 1.015743,1.015743 0 0 1 0.30898,-1.30426 z" />
      <rect
         style="fill:#000000;fill-opacity:0.43062201;stroke-width:0.264583"
         id="rect797"
         width="3.1685367"
         height="23.02796"
         x="138.30458"
         y="85.375259"
         ry="1.5842683" />
    </g>
  </g>
</svg>
